{"docs":[{"createdAt":"2026-03-21T07:20:03.000Z","updatedAt":"2026-03-21T07:20:03.000Z","meta":{"title":"“நண்பராக வந்தேன்” – மார்க்சிஸ்ட் அலுவலகத்தில் வைகோ விளக்கம்!","image":{"createdAt":"2026-03-21T07:20:03.000Z","updatedAt":"2026-03-21T07:20:03.000Z","alt":"Vaiko","filename":"Vaiko.webp","mimeType":"image/webp","filesize":0,"width":800,"height":600,"focalX":0,"focalY":0,"sizes":{"thumbnail":{"url":null},"square":{"url":null},"small":{"url":null},"medium":{"url":null},"large":{"url":null},"xlarge":{"url":null},"og":{"url":null}},"prefix":"uploads/2026/03","id":"69c193560536fdedca06ffa4","url":"https://media.dinasuvadu.com/uploads/2026/03/Vaiko.webp","thumbnailURL":null},"description":"மார்க்சிஸ்ட் பொதுச்செயலாளர் பேபியை நண்பன் என்ற முறையில் சந்திக்க வந்தேன் என வைகோ விளக்கம் அளித்துள்ளார்."},"customId":979372,"slugLock":false,"_status":"published","authors":[{"name":"பால முருகன்","email":"பால முருகன்@example.com","createdAt":"2026-03-21T07:20:03.000Z","updatedAt":"2026-03-21T07:20:03.000Z","id":"69c13b8d61bc4b911758b2cc","slugLock":true,"loginAttempts":0}],"categories":[{"title":"தமிழ்நாடு","slug":"tamilnadu","slugLock":true,"parent":{"title":"செய்திகள்","slug":"news","slugLock":true,"parent":null,"createdAt":"2026-03-23T19:24:05.845Z","updatedAt":"2026-03-23T19:24:05.845Z","id":"69c193550536fdedca06ff9f","breadcrumbs":[]},"createdAt":"2026-03-23T19:24:05.903Z","updatedAt":"2026-03-23T19:24:05.903Z","id":"69c193550536fdedca06ffa0","breadcrumbs":[]}],"content":{"root":{"children":[{"children":[{"detail":0,"format":1,"mode":"normal","style":"","text":"சென்னை :","type":"text","version":1},{"detail":0,"format":0,"mode":"normal","style":"","text":"தமிழகத்தில் 2026 சட்டமன்றத் தேர்தலுக்கான கூட்டணி பேச்சுவார்த்தைகள் தீவிரமடைந்து வரும் நிலையில், திமுக – மார்க்சிஸ்ட் கம்யூனிஸ்ட் கட்சி (சிபிஎம்) இடையே தொகுதி பங்கீடு குறித்த இழுபறி தொடர்ந்து வருகிறது. இந்நிலையில், சென்னை தி.நகரில் உள்ள சிபிஎம் மாநில அலுவலகத்துக்கு மதிமுக பொதுச்செயலாளர் வைகோ இன்று நேரில் சென்றார்.சிபிஎம் அவசர செயற்குழு கூட்டம் நடந்து வரும் சூழலில் வைகோவின் இந்த வருகை கவனத்தை ஈர்த்தது. அவர் பொதுச்செயலாளர் பி.பி.பேபியை சந்தித்துப் பேசினார்.","type":"text","version":1}],"direction":"ltr","format":"start","indent":0,"type":"paragraph","version":1,"textFormat":1,"textStyle":""},{"children":[{"detail":0,"format":0,"mode":"normal","style":"","text":"வைகோ செய்தியாளர்களிடம் பேசியபோது, “மார்க்சிஸ்ட் பொதுச்செயலாளர் பேபியை நண்பன் என்ற முறையில் சந்திக்க வந்தேன். மார்க்சிஸ்ட் அலுவலகத்தில் இருந்து அரசியல் கருத்துகளை கூற மாட்டேன். பேபி எனது சக உறுப்பினர் மட்டுமல்ல, என் மீது எல்லையற்ற அன்பு கொண்டவர். அவரை சந்தித்தேன்” என்று தெளிவுபடுத்தினார்.","type":"text","version":1}],"direction":"ltr","format":"start","indent":0,"type":"paragraph","version":1,"textFormat":0,"textStyle":""},{"children":[{"detail":0,"format":0,"mode":"normal","style":"","text":"திமுக – சிபிஎம் இடையே தொகுதி பங்கீடு தொடர்பாக வைகோ பேச்சுவார்த்தை நடத்த வந்ததாக சில தகவல்கள் வெளியான நிலையில், வைகோ அதை மறுத்தார். “பேபியை சந்திக்கவே வந்தேன். வேறு எந்த அரசியல் நோக்கமும் இல்லை” என்று அவர் வலியுறுத்தினார்.திமுக சிபிஎம்முக்கு 5 தொகுதிகளை மட்டுமே ஒதுக்க முன்வந்துள்ளதாக தகவல்கள் தெரிவிக்கின்றன. கடந்த தேர்தலைவிட கூடுதல் தொகுதிகள் கேட்பதில் சிபிஎம் உறுதியாக உள்ளது.","type":"text","version":1}],"direction":"ltr","format":"start","indent":0,"type":"paragraph","version":1,"textFormat":0,"textStyle":""},{"children":[{"detail":0,"format":0,"mode":"normal","style":"","text":"மாநிலச் செயலாளர் பி.சண்முகம் தலைமையிலான குழு, “கூடுதல் தொகுதிகள் கேட்பதில் நியாயம் இல்லை என்று திமுக கூறுவது ஏற்கத்தக்கதல்ல” என்று விமர்சித்து வருகிறது. மூன்று கட்ட பேச்சுவார்த்தைகளுக்குப் பிறகும் இதுவரை முடிவு எட்டப்படவில்லை.இன்று மீண்டும் திமுக – சிபிஎம் இடையே பேச்சுவார்த்தை நடைபெற்று வருகிறது.","type":"text","version":1}],"direction":"ltr","format":"start","indent":0,"type":"paragraph","version":1,"textFormat":0,"textStyle":""},{"children":[{"detail":0,"format":0,"mode":"normal","style":"","text":"இந்த இழுபறி திமுக கூட்டணியின் இறுதி வடிவத்தை பாதிக்கும் என்ற அச்சம் கூட்டணி தரப்பில் நிலவுகிறது. வைகோவின் வருகை இந்த பேச்சுவார்த்தைகளுக்கு பின்னணியில் ஏதேனும் பங்காற்றுகிறதா என்பது குறித்து அரசியல் வட்டாரத்தில் ஆர்வம் எழுந்துள்ளது.","type":"text","version":1}],"direction":"ltr","format":"start","indent":0,"type":"paragraph","version":1,"textFormat":0,"textStyle":""}],"direction":"ltr","format":"","indent":0,"type":"root","version":1,"textFormat":1}},"heroImage":{"createdAt":"2026-03-21T07:20:03.000Z","updatedAt":"2026-03-21T07:20:03.000Z","alt":"Vaiko","filename":"Vaiko.webp","mimeType":"image/webp","filesize":0,"width":800,"height":600,"focalX":0,"focalY":0,"sizes":{"thumbnail":{"url":null},"square":{"url":null},"small":{"url":null},"medium":{"url":null},"large":{"url":null},"xlarge":{"url":null},"og":{"url":null}},"prefix":"uploads/2026/03","id":"69c193560536fdedca06ffa4","url":"https://media.dinasuvadu.com/uploads/2026/03/Vaiko.webp","thumbnailURL":null},"populatedAuthors":[{"id":"69c13b8d61bc4b911758b2cc","name":"பால முருகன்"}],"publishedAt":"2026-03-21T07:20:03.000Z","slug":"i-came-as-a-friend-vaikos-explanation-at-the-marxist-office-979372","tags":[{"name":"#CPM","slug":"cpm","slugLock":true,"createdAt":"2026-03-21T07:20:03.000Z","updatedAt":"2026-03-21T07:20:03.000Z","id":"69c193550536fdedca06ffa1"},{"name":"#DMK","slug":"dmk","slugLock":true,"createdAt":"2026-03-21T07:20:03.000Z","updatedAt":"2026-03-21T07:20:03.000Z","id":"69c193560536fdedca06ffa2"},{"name":"#Vaiko","slug":"vaiko","slugLock":true,"createdAt":"2026-03-21T07:20:03.000Z","updatedAt":"2026-03-21T07:20:03.000Z","id":"69c193560536fdedca06ffa3"}],"title":"“நண்பராக வந்தேன்” – மார்க்சிஸ்ட் அலுவலகத்தில் வைகோ விளக்கம்!","id":"69c193560536fdedca06ffa5"}],"totalDocs":195,"limit":1,"totalPages":195,"page":1,"pagingCounter":1,"hasPrevPage":false,"hasNextPage":true,"prevPage":null,"nextPage":2}